<?xml version="1.0" encoding="UTF-8"?>
<svg width="16px" height="10px" viewBox="0 0 16 10" version="1.1" xmlns="http://www.w3.org/2000/svg" xmlns:xlink="http://www.w3.org/1999/xlink">
    <!-- Generator: sketchtool 56 (101010) - https://sketch.com -->
    <title>AC652E00-0550-426E-9C94-416590FE1783</title>
    <desc>Created with sketchtool.</desc>
    <g id="✅-Feather-(Neutral)" stroke="none" stroke-width="1" fill="none" fill-rule="evenodd" stroke-linecap="square">
        <g id="Cockpit" transform="translate(-1377.000000, -123.000000)" stroke="#AFAFB1" stroke-width="2">
            <g id="Searchbar-Copy-4" transform="translate(1153.000000, 104.000000)">
                <polyline id="arrow-down" points="226 21 232 27 238 21"></polyline>
            </g>
        </g>
    </g>
</svg>