<?xml version="1.0" encoding="UTF-8"?>
<svg width="16px" height="12px" viewBox="0 0 16 12" version="1.1" xmlns="http://www.w3.org/2000/svg" xmlns:xlink="http://www.w3.org/1999/xlink">
    <g id="✅-Feather-(Neutral)" stroke="none" stroke-width="1" fill="none" fill-rule="evenodd" stroke-linecap="square">
        <g id="Login" transform="translate(-873.000000, -477.000000)" stroke="#263238" stroke-width="2" className="toggle">
            <g id="Group-4" transform="translate(522.000000, 236.000000)">
                <g id="Group" transform="translate(32.000000, 198.000000)">
                    <g id="Group-3">
                        <g id="Searchbar-Copy-2" transform="translate(0.000000, 25.000000)">
                            <polyline id="Checkmark" points="333 20 325 28 321 24"></polyline>
                        </g>
                    </g>
                </g>
            </g>
        </g>
    </g>
</svg>
