<?xml version="1.0" encoding="UTF-8"?>
<svg width="14px" height="14px" viewBox="0 0 14 14" version="1.1" xmlns="http://www.w3.org/2000/svg" xmlns:xlink="http://www.w3.org/1999/xlink">
    <g id="✅-Feather-(Neutral)" stroke="none" stroke-width="1" fill="none" fill-rule="evenodd" stroke-linecap="square">
        <g id="Versicherte-ausgeklappt" transform="translate(-394.000000, -708.000000)" stroke="#263238" stroke-width="2">
            <g id="Person-Copy" transform="translate(112.000000, 345.000000)">
                <g id="Group-8" transform="translate(239.000000, 334.000000)">
                    <g id="Group-8-Copy-8">
                        <g id="pen" transform="translate(44.000000, 30.000000)">
                            <path d="M10.6959641,0.434678635 L11.5653214,1.30403591 C12.1448929,1.88360742 12.1448929,2.82327852 11.5653214,3.40285003 L2.9681714,12 L0,12 L0,9.03182861 L8.59714996,0.434678635 C9.17672148,-0.144892878 10.1163926,-0.144892878 10.6959641,0.434678635 Z" id="Path"></path>
                            <path d="M7.4204285,1.61140012 L10.3885999,4.57957152 L7.4204285,1.61140012 Z" id="Path"></path>
                        </g>
                    </g>
                </g>
            </g>
        </g>
    </g>
</svg>
