{
  "Aggregates": null,
  "Data": [
    {
      "m_bIsActive": true,
      "m_dBirthDate": "1977-12-15T00:00:00",
      "m_dPayrollValidFrom": "2018-01-01T00:00:00",
      "m_dPayrollValidUntil": null,
      "m_nActivityRate": 100.0,
      "m_nBonus": 0.0,
      "m_nGrossSalary": 300000.0,
      "m_oEmployeeId": "30a52763-8d9a-454f-807f-a8f600fe17ce",
      "m_oEmployeeStatus": 0,
      "m_oEmployerId": "8492a6cf-8e06-46c6-ad69-a8f600fe0e8f",
      "m_oPersonId": "a301535a-104e-447e-a8c2-a8f600fe17ce",
      "m_sEmployeeStatus": "Inaktiv",
      "m_sEmployerName": "Firma 144",
      "m_sExtEmployerId": "144",
      "m_sExtParentId": "150",
      "m_sFirstname": "Marcel",
      "m_sInsEmployeeId": "30220",
      "m_sName": "Binder",
      "m_sSocialSecurityNumber": "756.9382.7916.52"
    },
    {
      "m_bIsActive": true,
      "m_dBirthDate": "1996-01-09T00:00:00",
      "m_dPayrollValidFrom": "2018-05-01T00:00:00",
      "m_dPayrollValidUntil": null,
      "m_nActivityRate": 100.0,
      "m_nBonus": 0.0,
      "m_nGrossSalary": 100000.0,
      "m_oEmployeeId": "6836d43c-99ef-4228-a97c-a8f600fe17ce",
      "m_oEmployeeStatus": 0,
      "m_oEmployerId": "8492a6cf-8e06-46c6-ad69-a8f600fe0e8f",
      "m_oPersonId": "df3881e0-eb6f-4870-91d9-a8f600fe17ce",
      "m_sEmployeeStatus": "Inaktiv",
      "m_sEmployerName": "Firma 144",
      "m_sExtEmployerId": "144",
      "m_sExtParentId": "150",
      "m_sFirstname": "James",
      "m_sInsEmployeeId": "30524",
      "m_sName": "Blunt",
      "m_sSocialSecurityNumber": "756.8385.0650.12"
    },
    {
      "m_bIsActive": true,
      "m_dBirthDate": "1992-09-17T00:00:00",
      "m_dPayrollValidFrom": "2018-01-01T00:00:00",
      "m_dPayrollValidUntil": null,
      "m_nActivityRate": 100.0,
      "m_nBonus": 0.0,
      "m_nGrossSalary": 160000.0,
      "m_oEmployeeId": "2f5bbf3d-c7cb-4729-9357-a8f600fe17ce",
      "m_oEmployeeStatus": 1,
      "m_oEmployerId": "8492a6cf-8e06-46c6-ad69-a8f600fe0e8f",
      "m_oPersonId": "c78cacc7-9248-480d-bc19-a8f600fe17ce",
      "m_sEmployeeStatus": "Inaktiv",
      "m_sEmployerName": "Firma 144",
      "m_sExtEmployerId": "144",
      "m_sExtParentId": "150",
      "m_sFirstname": "Oswaldo",
      "m_sInsEmployeeId": "30149",
      "m_sName": "Eigenmann",
      "m_sSocialSecurityNumber": "756.7058.5281.82"
    },
    {
      "m_bIsActive": true,
      "m_dBirthDate": "1994-04-06T00:00:00",
      "m_dPayrollValidFrom": "2018-01-01T00:00:00",
      "m_dPayrollValidUntil": "2018-12-31T00:00:00",
      "m_nActivityRate": 100.0,
      "m_nBonus": 0.0,
      "m_nGrossSalary": 62750.0,
      "m_oEmployeeId": "fcd8b949-9ab3-4b73-9d0e-a8f600fe17ce",
      "m_oEmployeeStatus": 1,
      "m_oEmployerId": "8492a6cf-8e06-46c6-ad69-a8f600fe0e8f",
      "m_oPersonId": "27eefa22-83d7-4d81-9ea6-a8f600fe17ce",
      "m_sEmployeeStatus": "",
      "m_sEmployerName": "Firma 145",
      "m_sExtEmployerId": "145",
      "m_sExtParentId": "150",
      "m_sFirstname": "Josephina",
      "m_sInsEmployeeId": "25419",
      "m_sName": "Kuster",
      "m_sSocialSecurityNumber": "756.4177.6695.81"
    },
    {
      "m_bIsActive": true,
      "m_dBirthDate": "1997-08-02T00:00:00",
      "m_dPayrollValidFrom": "2018-01-01T00:00:00",
      "m_dPayrollValidUntil": "2018-12-31T00:00:00",
      "m_nActivityRate": 100.0,
      "m_nBonus": 0.0,
      "m_nGrossSalary": 57850.0,
      "m_oEmployeeId": "66e10b45-1154-4011-ab4d-a8f600fe17ce",
      "m_oEmployeeStatus": 0,
      "m_oEmployerId": "8492a6cf-8e06-46c6-ad69-a8f600fe0e8f",
      "m_oPersonId": "20a96b04-03dd-4fe8-bf38-a8f600fe17ce",
      "m_sEmployeeStatus": "Inaktiv",
      "m_sEmployerName": "Firma 144",
      "m_sExtEmployerId": "144",
      "m_sExtParentId": "150",
      "m_sFirstname": "Susanna",
      "m_sInsEmployeeId": "29613",
      "m_sName": "Mooser",
      "m_sSocialSecurityNumber": "756.1349.5389.66"
    },
    {
      "m_bIsActive": true,
      "m_dBirthDate": "1962-06-11T00:00:00",
      "m_dPayrollValidFrom": "2018-01-01T00:00:00",
      "m_dPayrollValidUntil": "2018-12-31T00:00:00",
      "m_nActivityRate": 100.0,
      "m_nBonus": 0.0,
      "m_nGrossSalary": 95000.0,
      "m_oEmployeeId": "62d662c7-58d9-4529-bfc4-a8f600fe17ce",
      "m_oEmployeeStatus": 0,
      "m_oEmployerId": "8492a6cf-8e06-46c6-ad69-a8f600fe0e8f",
      "m_oPersonId": "e743da9f-a06d-4fc5-afb2-a8f600fe17ce",
      "m_sEmployeeStatus": "Inaktiv",
      "m_sEmployerName": "Firma 144",
      "m_sExtEmployerId": "144",
      "m_sExtParentId": "150",
      "m_sFirstname": "Viktor",
      "m_sInsEmployeeId": "9220003",
      "m_sName": "Ramstein",
      "m_sSocialSecurityNumber": "756.3779.1799.93"
    },
    {
      "m_bIsActive": true,
      "m_dBirthDate": "1955-06-14T00:00:00",
      "m_dPayrollValidFrom": "2018-01-01T00:00:00",
      "m_dPayrollValidUntil": null,
      "m_nActivityRate": 100.0,
      "m_nBonus": 0.0,
      "m_nGrossSalary": 95500.0,
      "m_oEmployeeId": "df2af8cc-e3f2-4489-9fa2-a8f600fe17ce",
      "m_oEmployeeStatus": 0,
      "m_oEmployerId": "8492a6cf-8e06-46c6-ad69-a8f600fe0e8f",
      "m_oPersonId": "d9e6c7ac-64c4-4d62-9060-a8f600fe17ce",
      "m_sEmployeeStatus": "",
      "m_sEmployerName": "Firma 144",
      "m_sExtEmployerId": "144",
      "m_sExtParentId": "150",
      "m_sFirstname": "Dominik",
      "m_sInsEmployeeId": "10414",
      "m_sName": "Scheller",
      "m_sSocialSecurityNumber": "756.0706.2293.01"
    },
    {
      "m_bIsActive": true,
      "m_dBirthDate": "1978-02-09T00:00:00",
      "m_dPayrollValidFrom": "2018-01-01T00:00:00",
      "m_dPayrollValidUntil": null,
      "m_nActivityRate": 100.0,
      "m_nBonus": 0.0,
      "m_nGrossSalary": 140000.0,
      "m_oEmployeeId": "dca99063-a303-4f11-b9e8-a8f600fe17ce",
      "m_oEmployeeStatus": 0,
      "m_oEmployerId": "8492a6cf-8e06-46c6-ad69-a8f600fe0e8f",
      "m_oPersonId": "766096ec-9efe-4792-95ed-a8f600fe17ce",
      "m_sEmployeeStatus": "geändert",
      "m_sEmployerName": "Firma 144",
      "m_sExtEmployerId": "144",
      "m_sExtParentId": "150",
      "m_sFirstname": "Manuel",
      "m_sInsEmployeeId": "26894",
      "m_sName": "Steiner",
      "m_sSocialSecurityNumber": "756.5982.3899.78"
    },
    {
      "m_bIsActive": true,
      "m_dBirthDate": "1958-02-11T00:00:00",
      "m_dPayrollValidFrom": "2018-01-01T00:00:00",
      "m_dPayrollValidUntil": null,
      "m_nActivityRate": 100.0,
      "m_nBonus": 0.0,
      "m_nGrossSalary": 110500.0,
      "m_oEmployeeId": "be7994e9-4aed-49eb-86fc-a8f600fe17cf",
      "m_oEmployeeStatus": 0,
      "m_oEmployerId": "8492a6cf-8e06-46c6-ad69-a8f600fe0e8f",
      "m_oPersonId": "5faf12a7-e9fd-48c2-8305-a8f600fe17cf",
      "m_sEmployeeStatus": "Inaktiv",
      "m_sEmployerName": "Firma 145",
      "m_sExtEmployerId": "145",
      "m_sExtParentId": "150",
      "m_sFirstname": "Philippe",
      "m_sInsEmployeeId": "2940013",
      "m_sName": "Tanner",
      "m_sSocialSecurityNumber": "756.4480.4215.86"
    },
    {
      "m_bIsActive": true,
      "m_dBirthDate": "1989-03-08T00:00:00",
      "m_dPayrollValidFrom": "2018-07-01T00:00:00",
      "m_dPayrollValidUntil": null,
      "m_nActivityRate": 100.0,
      "m_nBonus": 0.0,
      "m_nGrossSalary": 50000.0,
      "m_oEmployeeId": "bac8dd43-5e47-4e6b-a9c1-a8f600fe17cf",
      "m_oEmployeeStatus": 0,
      "m_oEmployerId": "8492a6cf-8e06-46c6-ad69-a8f600fe0e8f",
      "m_oPersonId": "f3df4833-6613-42fb-84c8-a8f600fe17cf",
      "m_sEmployeeStatus": "Inaktiv",
      "m_sEmployerName": "Firma 145",
      "m_sExtEmployerId": "145",
      "m_sExtParentId": "150",
      "m_sFirstname": "Armin",
      "m_sInsEmployeeId": "30842",
      "m_sName": "Weber",
      "m_sSocialSecurityNumber": "756.6003.6775.00"
    },
    {
      "m_bIsActive": true,
      "m_dBirthDate": "1958-02-11T00:00:00",
      "m_dPayrollValidFrom": "2018-01-01T00:00:00",
      "m_dPayrollValidUntil": null,
      "m_nActivityRate": 100.0,
      "m_nBonus": 0.0,
      "m_nGrossSalary": 110500.0,
      "m_oEmployeeId": "be7994e9-4aed-49eb-86fc-a8f600fe17cf",
      "m_oEmployeeStatus": 0,
      "m_oEmployerId": "8492a6cf-8e06-46c6-ad69-a8f600fe0e8f",
      "m_oPersonId": "5faf12a7-e9fd-48c2-8305-a8f600fe17cf",
      "m_sEmployeeStatus": "geändert",
      "m_sEmployerName": "Firma 145",
      "m_sExtEmployerId": "145",
      "m_sExtParentId": "150",
      "m_sFirstname": "Philippe2",
      "m_sInsEmployeeId": "29400132",
      "m_sName": "Tanner2",
      "m_sSocialSecurityNumber": "756.4480.4215.82"
    },
    {
      "m_bIsActive": true,
      "m_dBirthDate": "1989-03-08T00:00:00",
      "m_dPayrollValidFrom": "2018-07-01T00:00:00",
      "m_dPayrollValidUntil": null,
      "m_nActivityRate": 100.0,
      "m_nBonus": 0.0,
      "m_nGrossSalary": 50000.0,
      "m_oEmployeeId": "bac8dd43-5e47-4e6b-a9c1-a8f600fe17cf",
      "m_oEmployeeStatus": 0,
      "m_oEmployerId": "8492a6cf-8e06-46c6-ad69-a8f600fe0e8f",
      "m_oPersonId": "f3df4833-6613-42fb-84c8-a8f600fe17cf",
      "m_sEmployeeStatus": "geändert",
      "m_sEmployerName": "Firma 145",
      "m_sExtEmployerId": "145",
      "m_sExtParentId": "150",
      "m_sFirstname": "Armin2",
      "m_sInsEmployeeId": "308422",
      "m_sName": "Weber2",
      "m_sSocialSecurityNumber": "756.6003.6775.02"
    }
  ],
  "Total": 12
}
